15	41	17	07	2015	920	0	0.7	1	64.00	0	0
15	42	17	07	2015	1120	0	0.5	2	80.00	0	0
15	43	17	07	2015	350	1	0.5	1	76.00	0	0
15	44	17	07	2015	380	1	0.5	1	76.00	0	0
18	46	17	07	2015	1170	0	0.5	4	84.00	1	2
09	42	21	07	2015	778	0	0.5	2	100.00	1	6
11	33	21	07	2015	1378	0	0.5	4	100.00	1	0
11	49	21	07	2015	506	0	0.6	4	96.00	1	8
11	54	21	07	2015	406	0	0.6	4	96.00	1	9
