22_31_20_July_2015	1490.347	False	0.25	1	100.00	True	0
22_31_20_July_2015	1490.242	False	0.25	1	100.00	False	0
22_31_20_July_2015	1190.064	False	0.25	1	92.00	True	2
22_31_20_July_2015	790.2959	False	0.25	1	68.00	True	3
22_31_20_July_2015	1190.159	False	0.25	1	92.00	True	2
22_31_20_July_2015	1320.234	False	0.5	3	96.00	False	0
22_31_20_July_2015	1370.233	False	0.5	2	100.00	False	0
22_31_20_July_2015	1490.347	False	0.25	4	100.00	True	0
22_31_20_July_2015	670.256	False	0.5	4	84.00	True	5
22_31_20_July_2015	670.2598	False	0.5	4	100.00	True	7
